SCL Command summary for HP ScanJet 5p/5100C/4100C (5110A)
(Manufacturer Model FirmwareCode = HP      C5110A          3701)
================================================================

Command                 Code        Inq.ID    min    max current
----------------------------------------------------------------
Automatic Bkgrd         Esc*a#B      10307      0      1      0
Compression             Esc*a#C      10308      0      1      0
Download Type           Esc*a#D      10309      0     12      0
X Scale                 Esc*a#E      10310      4    200    100
Y Scale                 Esc*a#F      10311      4    200    100
Select Data Width       Esc*a#G      10312      1      1      1
Inverse Image           Esc*a#I      10314      0      1      0
B/W Dither Pattern      Esc*a#J      10315     -1      3      3
Contrast Level          Esc*a#K      10316   -127    127      0
Intensity Level         Esc*a#L      10317   -127    127      0
Mirror Image            Esc*a#M      10318      0      1      0
Reserved1               Esc*a#O      10320     -1      0      0
Window X Ext (Dec)      Esc*a#P      10321    n.a. (null response)
Window Y Ext (Dec)      Esc*a#Q      10322    n.a. (null response)
X Res                   Esc*a#R      10323     12   1600    300
Y Res                   Esc*a#S      10324     12   1600    300
Output Data Type        Esc*a#T      10325      0      5      0
Scan speed              Esc*a#V      10327    n.a. (null response)
Download Binary         Esc*a#W[]    10328    n.a. (null response)
Window X Pos (Dec)      Esc*a#X      10329    n.a. (null response)
Window Y Pos (Dec)      Esc*a#Y      10330    n.a. (null response)
Reconnect level         Esc*a#Z      10331    n.a. (null response)
Select Number of Views  Esc*f#A      10466      1      2      1
Select View             Esc*f#B      10467    n.a. (null response)
Preload ADF             Esc*f#C      10468    n.a. (null response)
Media type              Esc*f#D      10469    n.a. (null response)
Coordinate system       Esc*f#E      10470    n.a. (null response)
Pos Secondary Elem      Esc*f#F      10471      0   3507      0
Light Source Test       Esc*f#L      10477      0      1      0
Window X Ext (Pix)      Esc*f#P      10481      1   2550   2550
Window Y Ext (Pix)      Esc*f#Q      10482      1   3508   3508
Scan Window (w/ID)      Esc*f0S      10484    n.a. (null response)
Scanner Test            Esc*f#T      10485      0     15      0
Window X Pos (Pix)      Esc*f#X      10489      0   2549      0
Window Y Pos (Pix)      Esc*f#Y      10490      0   3507      0
Upload Binary           Esc*s#U      10902    n.a. (null response)
Select Cal Area (Y-pos) Esc*u#A      10946     -1   3407     -1
Byte order              Esc*u#B      10947      0      1      0
Select Cal Strip Parm.  Esc*u#C      10948     -1      3      0
XPA Scan Window (w/ID)  Esc*u0D      10949    n.a. (null response)
Speed Mode              Esc*u#E      10950      0      3      0
Set Filter              Esc*u#F      10951    n.a. (null response)
Calibration mode        Esc*u#G      10952      0      2      0
XPA Disable/Enable      Esc*u#H      10953    n.a. (null response)
Color Dither Pattern    Esc*u#J      10955    n.a. (null response)
Select Tone Map         Esc*u#K      10956     -2      0      0
Light Power             Esc*u#L      10957    n.a. (null response)
Recalibrate (w/ID)      Esc*u0R      10963    n.a. (null response)
ADF Scan Window (w/ID)  Esc*u0S      10964    n.a. (null response)
Select Matrix Coef      Esc*u#T      10965     -2      4      0
Unload Document         Esc*u0U      10966    n.a. (null response)
---?---                 Esc*u#V      10967      0    255      0
Change Document         Esc*u0X      10969      0      0      0
ADF Bkgrd Feed          Esc*u0Y      10970    n.a. (null response)


Device Parameters
==================

Inquire Device Parameter            Inq.ID    Response
-------------------------------------------------------
HP Model #1                              3    9195A
Firmware Date                            4    3701
Scan Status                              5    PPPPPPPPPPPPPPPP
ADF Status                               6    n.a. (null response)
HP Model #3                              9    n.a. (null response)
HP Model #2                             10    n.a. (null response)
HP Model #4                             11    n.a. (null response)
HP Model #5                             12    n.a. (null response)
HP Model #6                             14    n.a. (null response)
HP Model #8                             15    1130A
HP Model #9                             16    5110A
HP Model #10                            17    n.a. (null response)
HP Model #14                            21    n.a. (null response)
ADF Capability                          24    0
ADF Bin                                 25    0
Open Since last Chg                     26    0
Ready to Unload                         27    0
XPA Capability                          28    n.a. (null response)
XPA Status                              29    n.a. (null response)
XPA Ready                               30    n.a. (null response)
Max Error Stack                        256    1
Current Error Stack                    257    0
Current Error Number                   259    n.a. (null response)
Oldest Error                           261    n.a. (null response)
Pixels/Scan Line                      1024    2550
Bytes/Scan Line                       1025    319
Number Scan Lines                     1026    3508
ADF Ready                             1027    0
Device Pixels/Inch                    1028    300
Native Optical Resolution             1029    300
---?---                               1030      
Auto Filtering                        1031    n.a. (null response)
---?---                               1032    2
Should Be                             1034    n.a. (null response)
---?---                               1035       
Bytes in last scan                    1037    n.a. (null response)
---?---                               1039    1
Inquire Auto Speed Mode               1040    2
Which ADF                             1041    n.a. (null response)
---?---                               1044    0
Inquire Preloaded                     1045    0
Auto coefficient                      1046    100
Scan direction                        1047    n.a. (null response)


Supported command sets
======================

HP ScanJet 5p/5100C/4100C
HP ScanJet 4p
HP ScanJet/Plus
